%YAML 1.1
%TAG !u! tag:unity3d.com,2011:
--- !u!114 &11400000
MonoBehaviour:
  m_ObjectHideFlags: 0
  m_CorrespondingSourceObject: {fileID: 0}
  m_PrefabInstance: {fileID: 0}
  m_PrefabAsset: {fileID: 0}
  m_GameObject: {fileID: 0}
  m_Enabled: 1
  m_EditorHideFlags: 0
  m_Script: {fileID: 11500000, guid: 95e66c6366d904e98bc83428217d4fd7, type: 3}
  m_Name: BasicTower
  m_EditorClassIdentifier: 
  _data:
    _json: '{"graph":{"variables":{"collection":{"$content":[],"$version":"A"},"$version":"A"},"controlInputDefinitions":[],"controlOutputDefinitions":[],"valueInputDefinitions":[],"valueOutputDefinitions":[],"title":null,"summary":null,"pan":{"x":676.4276,"y":620.1903},"zoom":0.7500001,"elements":[{"coroutine":false,"defaultValues":{},"position":{"x":-140.0,"y":-289.0},"guid":"60374620-77c0-4736-9004-a8142950e9cf","$version":"A","$type":"Unity.VisualScripting.Start"},{"coroutine":false,"defaultValues":{},"position":{"x":-494.0,"y":-9.0},"guid":"0129cf23-8e1f-44cb-af39-631831515687","$version":"A","$type":"Unity.VisualScripting.Update","$id":"11"},{"chainable":false,"member":{"name":"Instantiate","parameterTypes":["UnityEngine.Object","UnityEngine.Vector3","UnityEngine.Quaternion"],"targetType":"UnityEngine.GameObject","targetTypeName":"UnityEngine.GameObject","$version":"A"},"defaultValues":{"%original":{"$content":0,"$type":"UnityEngine.Object"},"%position":{"x":0.0,"y":0.0,"z":0.0,"$type":"UnityEngine.Vector3"}},"position":{"x":203.0,"y":379.0},"guid":"efb38c9d-d45b-4a97-b850-47d1808cb016","$version":"A","$type":"Unity.VisualScripting.InvokeMember","$id":"13"},{"member":{"name":"position","parameterTypes":null,"targetType":"UnityEngine.Transform","targetTypeName":"UnityEngine.Transform","$version":"A"},"defaultValues":{"target":null},"position":{"x":460.0,"y":611.0},"guid":"8380ee71-3651-4256-999c-0e54c8d52d28","$version":"A","$type":"Unity.VisualScripting.GetMember","$id":"16"},{"kind":"Object","defaultValues":{"name":{"$content":"TargetEnemy","$type":"System.String"},"object":null},"position":{"x":1232.0,"y":12.0},"guid":"4ebc22c4-bec6-48e0-a0ae-420bc606e9cf","$version":"A","$type":"Unity.VisualScripting.SetVariable","$id":"19"},{"chainable":false,"member":{"name":"GetMask","parameterTypes":["System.String[]"],"targetType":"UnityEngine.LayerMask","targetTypeName":"UnityEngine.LayerMask","$version":"A"},"defaultValues":{},"position":{"x":158.0,"y":18.0},"guid":"8467ab67-6544-4562-87cf-ced5e6e7a7da","$version":"A","$type":"Unity.VisualScripting.InvokeMember","$id":"21"},{"member":{"name":"position","parameterTypes":null,"targetType":"UnityEngine.Transform","targetTypeName":"UnityEngine.Transform","$version":"A"},"defaultValues":{"target":null},"position":{"x":457.0,"y":735.0},"guid":"869af133-f049-4301-8c06-38c5e1ea5bf1","$version":"A","$type":"Unity.VisualScripting.GetMember","$id":"24"},{"chainable":false,"member":{"name":"OverlapSphere","parameterTypes":["UnityEngine.Vector3","System.Single","System.Int32"],"targetType":"UnityEngine.Physics","targetTypeName":"UnityEngine.Physics","$version":"A"},"defaultValues":{"%position":{"x":0.0,"y":0.0,"z":0.0,"$type":"UnityEngine.Vector3"},"%radius":{"$content":3.0,"$type":"System.Single"},"%layerMask":{"$content":0,"$type":"System.Int32"}},"position":{"x":363.0,"y":46.0},"guid":"d95cc589-4d87-4248-9fb6-2e71af801fea","$version":"A","$type":"Unity.VisualScripting.InvokeMember","$id":"27"},{"defaultValues":{},"position":{"x":-371.0,"y":126.0},"guid":"a021410b-5688-4316-b7d1-0726f2916e0c","$version":"A","$type":"Unity.VisualScripting.Null","$id":"30"},{"chainable":false,"member":{"name":"GetComponent","parameterTypes":["System.Type"],"targetType":"UnityEngine.Component","targetTypeName":"UnityEngine.Component","$version":"A"},"defaultValues":{"target":null,"%type":{"$content":"UnityEngine.Rigidbody","$type":"System.RuntimeType"}},"position":{"x":479.0,"y":390.0},"guid":"21ff8c53-ef34-44e2-910a-089e8f86f244","$version":"A","$type":"Unity.VisualScripting.InvokeMember","$id":"32"},{"member":{"name":"gameObject","parameterTypes":null,"targetType":"UnityEngine.Component","targetTypeName":"UnityEngine.Component","$version":"A"},"defaultValues":{"target":null},"position":{"x":1046.0,"y":78.0},"guid":"9e569061-44a2-42be-a5cd-84d370d945a9","$version":"A","$type":"Unity.VisualScripting.GetMember","$id":"35"},{"member":{"name":"position","parameterTypes":null,"targetType":"UnityEngine.Transform","targetTypeName":"UnityEngine.Transform","$version":"A"},"defaultValues":{"target":null},"position":{"x":173.0,"y":-85.0},"guid":"aa20c40b-533d-4d9d-802a-30586a62bf28","$version":"A","$type":"Unity.VisualScripting.GetMember","$id":"38"},{"numeric":true,"defaultValues":{"b":{"$content":0.0,"$type":"System.Single"}},"position":{"x":755.0,"y":148.0},"guid":"8baa4219-886a-40ef-ba88-37f411b7d044","$version":"A","$type":"Unity.VisualScripting.Greater","$id":"41"},{"specifyFallback":false,"kind":"Object","defaultValues":{"name":{"$content":"TargetEnemy","$type":"System.String"},"object":null},"position":{"x":-671.0,"y":490.0},"guid":"38d2385c-1737-4478-bf58-e391b95831da","$version":"A","$type":"Unity.VisualScripting.GetVariable","$id":"43"},{"member":{"name":"position","parameterTypes":null,"targetType":"UnityEngine.Transform","targetTypeName":"UnityEngine.Transform","$version":"A"},"defaultValues":{"target":null},"position":{"x":-39.0,"y":478.0},"guid":"d8226faf-9b22-4580-8a62-a57a6705ef08","$version":"A","$type":"Unity.VisualScripting.GetMember","$id":"45"},{"specifyFallback":false,"kind":"Object","defaultValues":{"name":{"$content":"Range","$type":"System.String"},"object":null},"position":{"x":206.0,"y":176.0},"guid":"2b0e7c09-8de1-444e-9740-4fea924ba04b","$version":"A","$type":"Unity.VisualScripting.GetVariable","$id":"48"},{"defaultValues":{},"position":{"x":899.0,"y":77.0},"guid":"76d5bf70-1d66-4878-83e3-fed2f0bb2cd0","$version":"A","$type":"Unity.VisualScripting.FirstItem","$id":"50"},{"defaultValues":{"minuend":{"x":0.0,"y":0.0,"z":0.0,"$type":"UnityEngine.Vector3"},"subtrahend":{"x":0.0,"y":0.0,"z":0.0,"$type":"UnityEngine.Vector3"}},"position":{"x":649.0,"y":644.0},"guid":"45089764-db7b-44b4-b25b-938338886f59","$version":"A","$type":"Unity.VisualScripting.Vector3Subtract","$id":"52"},{"defaultValues":{},"position":{"x":596.0,"y":145.0},"guid":"0ff1afc0-098f-4422-8977-dae115041145","$version":"A","$type":"Unity.VisualScripting.CountItems","$id":"54"},{"coroutine":false,"defaultValues":{},"position":{"x":-811.0,"y":386.0},"guid":"adf87d98-731b-4fa6-8382-af5a922a91ec","$version":"A","$type":"Unity.VisualScripting.Update","$id":"56"},{"defaultValues":{"duration":{"$content":1.0,"$type":"System.Single"},"unscaledTime":{"$content":false,"$type":"System.Boolean"}},"position":{"x":-285.0,"y":374.0},"guid":"785fb24f-c74e-4ee7-8ae6-f088a98ecf6a","$version":"A","$type":"Unity.VisualScripting.Cooldown","$id":"58"},{"defaultValues":{},"position":{"x":772.0,"y":13.0},"guid":"cdfa0d31-3b74-40c3-8939-126712aa7a70","$version":"A","$type":"Unity.VisualScripting.If","$id":"60"},{"kind":"Object","defaultValues":{"name":{"$content":"TargetEnemy","$type":"System.String"},"object":null},"position":{"x":-251.0,"y":-40.0},"guid":"3b3364b1-5b0a-4768-abb9-920475869da8","$version":"A","$type":"Unity.VisualScripting.SetVariable","$id":"62"},{"specifyFallback":false,"kind":"Object","defaultValues":{"name":{"$content":"TargetEnemy","$type":"System.String"},"object":null},"position":{"x":266.0,"y":607.0},"guid":"569ed3ad-3e38-403f-a6c6-6b0b5a28b6d9","$version":"A","$type":"Unity.VisualScripting.GetVariable","$id":"64"},{"defaultValues":{},"position":{"x":962.0,"y":627.0},"guid":"62420c3c-c960-4fd1-a9b7-e83ac5983007","$version":"A","$type":"Unity.VisualScripting.GenericMultiply","$id":"66"},{"specifyFallback":false,"kind":"Object","defaultValues":{"name":{"$content":"ProjectileSpeed","$type":"System.String"},"object":null},"position":{"x":765.0,"y":730.0},"guid":"90676f81-8cad-49f5-9838-54bf00f1ba44","$version":"A","$type":"Unity.VisualScripting.GetVariable","$id":"68"},{"member":{"name":"normalized","parameterTypes":null,"targetType":"UnityEngine.Vector3","targetTypeName":"UnityEngine.Vector3","$version":"A"},"defaultValues":{"target":{"x":0.0,"y":0.0,"z":0.0,"$type":"UnityEngine.Vector3"}},"position":{"x":795.0,"y":593.0},"guid":"c4724634-f55e-4355-882c-ea190ba5797e","$version":"A","$type":"Unity.VisualScripting.GetMember","$id":"70"},{"chainable":false,"member":{"name":"velocity","parameterTypes":null,"targetType":"UnityEngine.Rigidbody","targetTypeName":"UnityEngine.Rigidbody","$version":"A"},"defaultValues":{"target":null,"input":{"x":0.0,"y":0.0,"z":0.0,"$type":"UnityEngine.Vector3"}},"position":{"x":913.0,"y":393.0},"guid":"4d071f2b-c1d1-4d5a-9a5c-2695727614df","$version":"A","$type":"Unity.VisualScripting.SetMember","$id":"73"},{"specifyFallback":false,"kind":"Object","defaultValues":{"name":{"$content":"FiringDelay","$type":"System.String"},"object":null},"position":{"x":-341.0,"y":585.0},"guid":"8bb538dd-d620-48b6-9912-98b2d6bac476","$version":"A","$type":"Unity.VisualScripting.GetVariable","$id":"76"},{"defaultValues":{},"position":{"x":-490.0,"y":409.0},"guid":"46bb6f50-56f0-4386-9b7a-fc1dc6dbd210","$version":"A","$type":"Unity.VisualScripting.NullCheck","$id":"78"},{"member":{"name":"identity","parameterTypes":null,"targetType":"UnityEngine.Quaternion","targetTypeName":"UnityEngine.Quaternion","$version":"A"},"defaultValues":{},"position":{"x":59.0,"y":580.0},"guid":"e94ae351-8bb9-48fc-b461-c04faaf84447","$version":"A","$type":"Unity.VisualScripting.GetMember","$id":"80"},{"type":"System.Collections.Generic.List`1[[System.String,
      mscorlib, Version=4.0.0.0, Culture=neutral, PublicKeyToken=b77a5c561934e089]]","value":{"$content":["Enemies"],"$type":"System.Collections.Generic.List`1[[System.String,
      mscorlib, Version=4.0.0.0, Culture=neutral, PublicKeyToken=b77a5c561934e089]]"},"defaultValues":{},"position":{"x":-2.0,"y":140.0},"guid":"92bebd5d-0d7a-4084-ab6b-e532b9ac3502","$version":"A","$type":"Unity.VisualScripting.Literal","$id":"83"},{"sourceUnit":{"$ref":"27"},"sourceKey":"exit","destinationUnit":{"$ref":"60"},"destinationKey":"enter","guid":"9ac91de0-736f-40e4-aa82-9c540d467b07","$type":"Unity.VisualScripting.ControlConnection"},{"sourceUnit":{"$ref":"56"},"sourceKey":"trigger","destinationUnit":{"$ref":"78"},"destinationKey":"enter","guid":"b436de32-b50c-49ce-8d47-5a5367bd52af","$type":"Unity.VisualScripting.ControlConnection"},{"sourceUnit":{"$ref":"32"},"sourceKey":"exit","destinationUnit":{"$ref":"73"},"destinationKey":"assign","guid":"affafc76-bb61-4d70-904b-6cc794dd74ac","$type":"Unity.VisualScripting.ControlConnection"},{"sourceUnit":{"$ref":"78"},"sourceKey":"ifNotNull","destinationUnit":{"$ref":"58"},"destinationKey":"enter","guid":"0e22e449-2045-46db-a36e-605459f4c764","$type":"Unity.VisualScripting.ControlConnection"},{"sourceUnit":{"$ref":"13"},"sourceKey":"exit","destinationUnit":{"$ref":"32"},"destinationKey":"enter","guid":"8ddb00be-8bad-4a71-b8c2-f51dba0babc9","$type":"Unity.VisualScripting.ControlConnection"},{"sourceUnit":{"$ref":"21"},"sourceKey":"exit","destinationUnit":{"$ref":"27"},"destinationKey":"enter","guid":"fa9f497c-aff3-43c2-8a5c-ed3638f2db4e","$type":"Unity.VisualScripting.ControlConnection"},{"sourceUnit":{"$ref":"60"},"sourceKey":"ifTrue","destinationUnit":{"$ref":"19"},"destinationKey":"assign","guid":"215d00ca-3574-4413-9935-ad7fe2508e50","$type":"Unity.VisualScripting.ControlConnection"},{"sourceUnit":{"$ref":"11"},"sourceKey":"trigger","destinationUnit":{"$ref":"62"},"destinationKey":"assign","guid":"2d61f25d-ae71-467b-9c6f-d1781734bef6","$type":"Unity.VisualScripting.ControlConnection"},{"sourceUnit":{"$ref":"62"},"sourceKey":"assigned","destinationUnit":{"$ref":"21"},"destinationKey":"enter","guid":"0d35fd53-e087-40a7-9f9b-5169d4e54f5b","$type":"Unity.VisualScripting.ControlConnection"},{"sourceUnit":{"$ref":"58"},"sourceKey":"exitReady","destinationUnit":{"$ref":"13"},"destinationKey":"enter","guid":"f51877cf-7ada-46d4-948e-d667ddcb7ba2","$type":"Unity.VisualScripting.ControlConnection"},{"sourceUnit":{"$ref":"38"},"sourceKey":"value","destinationUnit":{"$ref":"27"},"destinationKey":"%position","guid":"ebedbed6-b9e1-44dc-9bd1-9227cb76c9fe","$type":"Unity.VisualScripting.ValueConnection"},{"sourceUnit":{"$ref":"41"},"sourceKey":"comparison","destinationUnit":{"$ref":"60"},"destinationKey":"condition","guid":"26e2cb21-edde-4735-8c02-28d841a99318","$type":"Unity.VisualScripting.ValueConnection"},{"sourceUnit":{"$ref":"64"},"sourceKey":"value","destinationUnit":{"$ref":"16"},"destinationKey":"target","guid":"c34fa0eb-a413-4312-b5fd-f27e8bd8212c","$type":"Unity.VisualScripting.ValueConnection"},{"sourceUnit":{"$ref":"30"},"sourceKey":"null","destinationUnit":{"$ref":"62"},"destinationKey":"input","guid":"111e1e97-02c7-4fba-8f91-7e41113ea68e","$type":"Unity.VisualScripting.ValueConnection"},{"sourceUnit":{"$ref":"48"},"sourceKey":"value","destinationUnit":{"$ref":"27"},"destinationKey":"%radius","guid":"613159e4-ff8b-4b9e-a8f8-ba2dd6ac2147","$type":"Unity.VisualScripting.ValueConnection"},{"sourceUnit":{"$ref":"27"},"sourceKey":"result","destinationUnit":{"$ref":"50"},"destinationKey":"collection","guid":"a207d986-8ae0-4632-9643-efdfbfcee1cd","$type":"Unity.VisualScripting.ValueConnection"},{"sourceUnit":{"$ref":"45"},"sourceKey":"value","destinationUnit":{"$ref":"13"},"destinationKey":"%position","guid":"82a5cfe6-2d3b-4eb6-8a3a-7b9ef6c00eca","$type":"Unity.VisualScripting.ValueConnection"},{"sourceUnit":{"$ref":"27"},"sourceKey":"result","destinationUnit":{"$ref":"54"},"destinationKey":"collection","guid":"70b32aa4-1b71-40ff-9584-2f8e27998460","$type":"Unity.VisualScripting.ValueConnection"},{"sourceUnit":{"$ref":"35"},"sourceKey":"value","destinationUnit":{"$ref":"19"},"destinationKey":"input","guid":"11b3604a-0edf-4312-9c85-2a25572eed87","$type":"Unity.VisualScripting.ValueConnection"},{"sourceUnit":{"$ref":"13"},"sourceKey":"result","destinationUnit":{"$ref":"32"},"destinationKey":"target","guid":"4d9fd049-8fa9-406b-99ed-2d5d7c593314","$type":"Unity.VisualScripting.ValueConnection"},{"sourceUnit":{"$ref":"32"},"sourceKey":"result","destinationUnit":{"$ref":"73"},"destinationKey":"target","guid":"e3586adb-fcfb-4e01-bf18-55885f12a121","$type":"Unity.VisualScripting.ValueConnection"},{"sourceUnit":{"$ref":"83"},"sourceKey":"output","destinationUnit":{"$ref":"21"},"destinationKey":"%layerNames","guid":"162fc53c-db2c-4a00-be5a-b1c415228bc7","$type":"Unity.VisualScripting.ValueConnection"},{"sourceUnit":{"$ref":"16"},"sourceKey":"value","destinationUnit":{"$ref":"52"},"destinationKey":"minuend","guid":"16945839-6138-4180-91ec-d21a432f1dd3","$type":"Unity.VisualScripting.ValueConnection"},{"sourceUnit":{"$ref":"68"},"sourceKey":"value","destinationUnit":{"$ref":"66"},"destinationKey":"b","guid":"a0631c08-1405-4a44-9433-3c6753a13e3c","$type":"Unity.VisualScripting.ValueConnection"},{"sourceUnit":{"$ref":"21"},"sourceKey":"result","destinationUnit":{"$ref":"27"},"destinationKey":"%layerMask","guid":"797217ec-6e16-4c95-ad62-030e35776089","$type":"Unity.VisualScripting.ValueConnection"},{"sourceUnit":{"$ref":"70"},"sourceKey":"value","destinationUnit":{"$ref":"66"},"destinationKey":"a","guid":"9a2deaf6-1ed2-4723-8b53-d80577f4d0f9","$type":"Unity.VisualScripting.ValueConnection"},{"sourceUnit":{"$ref":"66"},"sourceKey":"product","destinationUnit":{"$ref":"73"},"destinationKey":"input","guid":"fc299895-c96c-42ab-8ace-1bc5f8c08e6c","$type":"Unity.VisualScripting.ValueConnection"},{"sourceUnit":{"$ref":"50"},"sourceKey":"firstItem","destinationUnit":{"$ref":"35"},"destinationKey":"target","guid":"d9f9b0b6-565f-4187-bd7f-e05dca8f3c14","$type":"Unity.VisualScripting.ValueConnection"},{"sourceUnit":{"$ref":"43"},"sourceKey":"value","destinationUnit":{"$ref":"78"},"destinationKey":"input","guid":"cce4ed91-8eb9-4ad5-817d-743357181991","$type":"Unity.VisualScripting.ValueConnection"},{"sourceUnit":{"$ref":"80"},"sourceKey":"value","destinationUnit":{"$ref":"13"},"destinationKey":"%rotation","guid":"b6d97c84-3b86-440c-ac5a-6e2603be38dc","$type":"Unity.VisualScripting.ValueConnection"},{"sourceUnit":{"$ref":"24"},"sourceKey":"value","destinationUnit":{"$ref":"52"},"destinationKey":"subtrahend","guid":"85b2095f-465b-4150-9355-5db91b3e2712","$type":"Unity.VisualScripting.ValueConnection"},{"sourceUnit":{"$ref":"52"},"sourceKey":"difference","destinationUnit":{"$ref":"70"},"destinationKey":"target","guid":"36f7cefb-bfb2-4edd-b6b1-82fe37b25580","$type":"Unity.VisualScripting.ValueConnection"},{"sourceUnit":{"$ref":"54"},"sourceKey":"count","destinationUnit":{"$ref":"41"},"destinationKey":"a","guid":"441c0339-936d-4676-958a-d6bbd7453fab","$type":"Unity.VisualScripting.ValueConnection"},{"sourceUnit":{"$ref":"76"},"sourceKey":"value","destinationUnit":{"$ref":"58"},"destinationKey":"duration","guid":"4d58ed79-1f53-4fab-9112-829ec804a6ab","$type":"Unity.VisualScripting.ValueConnection"},{"position":{"xMin":-686.0,"yMin":347.0,"xMax":-358.0,"yMax":727.0},"label":"If
      we have a target...","comment":null,"color":{"r":0.0,"g":0.0,"b":0.0,"a":1.0},"guid":"aceb57c4-e60e-487a-8fa2-94a934c23713","$version":"A","$type":"Unity.VisualScripting.GraphGroup"},{"position":{"xMin":-50.11111,"yMin":335.6666,"xMax":1086.556,"yMax":846.3333},"label":"Fire
      a projectile at it","comment":null,"color":{"r":0.0,"g":0.0,"b":0.0,"a":1.0},"guid":"2c8f5eb5-6a44-4c34-8dc3-3b72e21b8ca5","$version":"A","$type":"Unity.VisualScripting.GraphGroup"},{"position":{"xMin":557.7475,"yMin":-168.9806,"xMax":1211.864,"yMax":311.6505},"label":"Pick
      the first enemy found","comment":null,"color":{"r":0.0,"g":0.0,"b":0.0,"a":1.0},"guid":"0d26be86-a173-4a63-be7c-2e094a2ef721","$version":"A","$type":"Unity.VisualScripting.GraphGroup"},{"position":{"xMin":-39.0,"yMin":-158.0,"xMax":516.0,"yMax":325.0},"label":"Get
      all enemies in range","comment":null,"color":{"r":0.0,"g":0.0,"b":0.0,"a":1.0},"guid":"5fb85a2d-387c-4d33-9cab-4e8098ba6e01","$version":"A","$type":"Unity.VisualScripting.GraphGroup"},{"position":{"xMin":-381.3495,"yMin":-118.5534,"xMax":-69.60205,"yMax":233.3397},"label":"Set
      target enemy to null","comment":null,"color":{"r":0.0,"g":0.0,"b":0.0,"a":1.0},"guid":"4742d7f3-3f27-4df2-b806-12d74baee6d7","$version":"A","$type":"Unity.VisualScripting.GraphGroup"},{"position":{"xMin":-345.0345,"yMin":322.3965,"xMax":-64.86212,"yMax":739.6379},"label":"Fire
      on a timer","comment":null,"color":{"r":0.0,"g":0.0,"b":0.0,"a":1.0},"guid":"d171266a-ec79-4f92-9010-4edca6374802","$version":"A","$type":"Unity.VisualScripting.GraphGroup"}],"$version":"A"}}'
    _objectReferences:
    - {fileID: 8456301910721542721, guid: d902a07a17c0b0549b0691fd4e0f3f8d, type: 3}
